[
  {
    "id": 1109,
    "resumen": "Recibirán a una delegación de la Asamblea Popular Consultiva de la República de Indonesia, encabezada por el señor Diputado Bambang Sadono.",
    "sala": {
      "numero": "Salón de Honor de la Presidencia de la HCDN - Palacio Legislativo, piso 1º",
      "puertas": "",
      "internos": "",
      "piso": ""
    },
    "estado": {
      "id": 2,
      "descripcion": "convocada"
    },
    "observaciones": "",
    "comisiones": [],
    "gpas": [
      {
        "id": 12,
        "descripcion": "GRUPO PARLAMENTARIO DE AMISTAD CON ASEAN (ASOCIACIÓN DE NACIONES DEL SUDESTE ASIÁTICO)",
        "nombreCorto": "ASEAN",
        "fechaInicio": "2014-03-01 00:00",
        "fechaFin": null,
        "periodoInicio": 132,
        "periodoFin": 132
      },
      {
        "id": 52,
        "descripcion": "GRUPO PARLAMENTARIO DE AMISTAD CON LA REPÚBLICA DE INDONESIA",
        "nombreCorto": "INDONESIA",
        "fechaInicio": "2017-08-29 00:00",
        "fechaFin": null,
        "periodoInicio": 135,
        "periodoFin": 135
      }
    ],
    "reunionConjunta": false,
    "title": "GRUPO PARLAMENTARIO DE AMISTAD CON ASEAN (ASOCIACIÓN DE NACIONES DEL SUDESTE ASIÁTICO), GRUPO PARLAMENTARIO DE AMISTAD CON LA REPÚBLICA DE INDONESIA. ",
    "start": "2018-02-05 11:00"
  },
  {
    "id": 1107,
    "resumen": "Reunión constitutiva. Tratamiento de los decretos 979/2017, 1076/2017, 1077/2017, 1013/2017, 27/2018.",
    "sala": {
      "numero": "Salón Arturo Illia del HSN - Hipólito Yrigoyen 1849, piso 1° ",
      "puertas": "",
      "internos": "",
      "piso": "Piso 1"
    },
    "estado": {
      "id": 2,
      "descripcion": "convocada"
    },
    "observaciones": "",
    "comisiones": [
      {
        "id": 159,
        "nombre": "BICAMERAL PERMANENTE DE TRAMITE LEGISLATIVO - LEY 26122",
        "grupo": "CB",
        "orden": 1014
      }
    ],
    "gpas": [],
    "reunionConjunta": false,
    "title": "BICAMERAL PERMANENTE DE TRAMITE LEGISLATIVO - LEY 26122. ",
    "start": "2018-02-06 15:30"
  },
  {
    "id": 1110,
    "resumen": "Reunión constitutiva.",
    "sala": {
      "numero": "Salón Arturo Illia del HSN - Hipólito Yrigoyen 1849, piso 1° ",
      "puertas": "",
      "internos": "",
      "piso": "Piso 1"
    },
    "estado": {
      "id": 2,
      "descripcion": "convocada"
    },
    "observaciones": "",
    "comisiones": [
      {
        "id": 212,
        "nombre": "BICAMERAL DE SUPERVISIÓN PARLAMENTARIA DE LA OFICINA DE PRESUPUESTO DEL CONGRESO DE LA NACIÓN (LEY 27.343)",
        "grupo": "CB",
        "orden": 1033
      }
    ],
    "gpas": [],
    "reunionConjunta": false,
    "title": "BICAMERAL DE SUPERVISIÓN PARLAMENTARIA DE LA OFICINA DE PRESUPUESTO DEL CONGRESO DE LA NACIÓN (LEY 27.343). ",
    "start": "2018-02-28 10:30"
  },
  {
    "id": 1112,
    "resumen": "Reunión Constitutiva.",
    "sala": {
      "numero": "Anexo A - Sala 5",
      "puertas": "348 - 350",
      "internos": "2345",
      "piso": "Piso 3"
    },
    "estado": {
      "id": 2,
      "descripcion": "convocada"
    },
    "observaciones": "",
    "comisiones": [
      {
        "id": 46,
        "nombre": "LEGISLACION GENERAL",
        "grupo": "CD",
        "orden": 2
      }
    ],
    "gpas": [],
    "reunionConjunta": false,
    "title": "LEGISLACION GENERAL. ",
    "start": "2018-03-06 14:00"
  },
  {
    "id": 1113,
    "resumen": "Reunión Constitutiva.",
    "sala": {
      "numero": "Anexo A - Sala 3",
      "puertas": "244 - 246",
      "internos": "2262",
      "piso": "Piso 2"
    },
    "estado": {
      "id": 2,
      "descripcion": "convocada"
    },
    "observaciones": "",
    "comisiones": [
      {
        "id": 43,
        "nombre": "PEQUEÑAS Y MEDIANAS EMPRESAS",
        "grupo": "CD",
        "orden": 41
      }
    ],
    "gpas": [],
    "reunionConjunta": false,
    "title": "PEQUEÑAS Y MEDIANAS EMPRESAS. ",
    "start": "2018-03-06 14:30"
  },
  {
    "id": 1114,
    "resumen": "Reunión Constitutiva.",
    "sala": {
      "numero": "Anexo A - Sala 2",
      "puertas": "223 - 225",
      "internos": "2200",
      "piso": "Piso 2"
    },
    "estado": {
      "id": 2,
      "descripcion": "convocada"
    },
    "observaciones": "",
    "comisiones": [
      {
        "id": 55,
        "nombre": "LEGISLACION PENAL",
        "grupo": "CD",
        "orden": 13
      }
    ],
    "gpas": [],
    "reunionConjunta": false,
    "title": "LEGISLACION PENAL. ",
    "start": "2018-03-06 15:30"
  },
  {
    "id": 1115,
    "resumen": "Reunión Constitutiva.",
    "sala": {
      "numero": "Anexo A - Sala 1",
      "puertas": "227 - 229 - 248 - 250",
      "internos": "2244/42/51",
      "piso": "Piso 2"
    },
    "estado": {
      "id": 2,
      "descripcion": "convocada"
    },
    "observaciones": "",
    "comisiones": [
      {
        "id": 129,
        "nombre": "FAMILIA, MUJER, NIÑEZ Y ADOLESCENCIA",
        "grupo": "CD",
        "orden": 11
      }
    ],
    "gpas": [],
    "reunionConjunta": false,
    "title": "FAMILIA, MUJER, NIÑEZ Y ADOLESCENCIA. ",
    "start": "2018-03-06 16:00"
  },
  {
    "id": 1117,
    "resumen": "Fue invitada la Presidenta del Instituto Nacional de las Mujeres, Sra. Fabiana Tuñez, quien expondrá sobre Balance de Gestión y desafíos 2018.",
    "sala": {
      "numero": "Anexo A - Sala 1",
      "puertas": "227 - 229 - 248 - 250",
      "internos": "2244/42/51",
      "piso": "Piso 2"
    },
    "estado": {
      "id": 2,
      "descripcion": "convocada"
    },
    "observaciones": "",
    "comisiones": [
      {
        "id": 129,
        "nombre": "FAMILIA, MUJER, NIÑEZ Y ADOLESCENCIA",
        "grupo": "CD",
        "orden": 11
      }
    ],
    "gpas": [],
    "reunionConjunta": false,
    "title": "FAMILIA, MUJER, NIÑEZ Y ADOLESCENCIA. ",
    "start": "2018-03-06 16:30"
  },
  {
    "id": 1116,
    "resumen": "Reunión Constitutiva.",
    "sala": {
      "numero": "Anexo A - Sala 6",
      "puertas": "323 - 325",
      "internos": "2347",
      "piso": "Piso 3"
    },
    "estado": {
      "id": 2,
      "descripcion": "convocada"
    },
    "observaciones": "",
    "comisiones": [
      {
        "id": 60,
        "nombre": "FINANZAS",
        "grupo": "CD",
        "orden": 18
      }
    ],
    "gpas": [],
    "reunionConjunta": false,
    "title": "FINANZAS. ",
    "start": "2018-03-06 16:30"
  },
  {
    "id": 1111,
    "resumen": "Continuación del cuarto intermedio. Mensaje N° 1/18 que comunica el dictado del Decreto N° 1111/17 de Facultades Delegadas por el cual se deja transitoriamente sin efecto el gravamen previsto en el Capítulo V del Título II de la Ley de Impuestos Internos, texto sustituido por la Ley 24.674 y S/M, a partir del 1° de Enero y hasta el 31 de Diciembre de 2018. Mensaje N° 2/18 que comunica el dictado del Decreto N° 1103 /17 de Facultades Delegadas, por el cual se deja transitoriamente sin efecto el gravamen previsto en el Capítulo VII del Título II de la Ley de Impuestos Internos, texto sustituido por la Ley 24.674 y S/M, a partir del 4 de Enero y hasta el 31 de Diciembre de 2018 inclusive. Mensaje N° 4/18 que comunica el dictado del Decreto de Necesidad y Urgencia N° 90 /18 por el que transfiere el Programa de respaldo a Estudiantes Argentinos (PROGRESAR), creado por DNU 84/14 S/M, del ámbito de ANSES a la órbita del Ministerio de Educación. Mensaje N° 5/18 que comunica el dictado del Decreto N° 94/18 que prorroga la vigencia de la Ley 27.253 – Régimen de Reintegro de una Proporción del Impuesto al Valor Agregado -, por compras en comercio de venta minorista desde el 1 de Enero de 2018 y hasta el 31 de Diciembre de 2018, ambas fechas inclusive. Mensaje N° 6 /18 que comunica el dictado del Decreto de Necesidad y Urgencia N° 95 /18 por el cual se modifican diversos artículos de la Ley de Ministerios 22.520. Mensaje N° 7 /18 que comunica el dictado del Decreto N° 99 /18 que prorroga la vigencia del Decreto 15 /17 –Alícuota del Impuesto Adicional de Emergencia sobre el precio final del paquete de cigarrillos, hasta el 28 de Febrero de 2018. Mensaje N° 8 /18 que comunica el dictado del Decreto N° 100/18 que prorroga la vigencia del Decreto 14 /17- Alícuota adicional de Emergencia sobre precio final del paquete de cigarrillos, hasta el 28 de Febrero de 2018.",
    "sala": {
      "numero": "Salón Deolindo F. Bittel - Edificio Anexo HSN, 4° piso",
      "puertas": "",
      "internos": "",
      "piso": ""
    },
    "estado": {
      "id": 2,
      "descripcion": "convocada"
    },
    "observaciones": "",
    "comisiones": [
      {
        "id": 159,
        "nombre": "BICAMERAL PERMANENTE DE TRAMITE LEGISLATIVO - LEY 26122",
        "grupo": "CB",
        "orden": 1014
      }
    ],
    "gpas": [],
    "reunionConjunta": false,
    "title": "BICAMERAL PERMANENTE DE TRAMITE LEGISLATIVO - LEY 26122. ",
    "start": "2018-03-06 17:00"
  },
  {
    "id": 1120,
    "resumen": "Tratamiento del reglamento de la Comisión.",
    "sala": {
      "numero": "Salón Maya del HSN, piso 4º",
      "puertas": "",
      "internos": "",
      "piso": ""
    },
    "estado": {
      "id": 2,
      "descripcion": "convocada"
    },
    "observaciones": "",
    "comisiones": [
      {
        "id": 212,
        "nombre": "BICAMERAL DE SUPERVISIÓN PARLAMENTARIA DE LA OFICINA DE PRESUPUESTO DEL CONGRESO DE LA NACIÓN (LEY 27.343)",
        "grupo": "CB",
        "orden": 1033
      }
    ],
    "gpas": [],
    "reunionConjunta": false,
    "title": "BICAMERAL DE SUPERVISIÓN PARLAMENTARIA DE LA OFICINA DE PRESUPUESTO DEL CONGRESO DE LA NACIÓN (LEY 27.343). ",
    "start": "2018-03-07 10:30"
  },
  {
    "id": 1121,
    "resumen": "Régimen de simplificación y desburocratización para el Desarrollo Productivo de la Nación.",
    "sala": {
      "numero": "Anexo A - Sala 1",
      "puertas": "227 - 229 - 248 - 250",
      "internos": "2244/42/51",
      "piso": "Piso 2"
    },
    "estado": {
      "id": 2,
      "descripcion": "convocada"
    },
    "observaciones": "",
    "comisiones": [
      {
        "id": 43,
        "nombre": "PEQUEÑAS Y MEDIANAS EMPRESAS",
        "grupo": "CD",
        "orden": 41
      },
      {
        "id": 60,
        "nombre": "FINANZAS",
        "grupo": "CD",
        "orden": 18
      },
      {
        "id": 46,
        "nombre": "LEGISLACION GENERAL",
        "grupo": "CD",
        "orden": 2
      }
    ],
    "gpas": [],
    "reunionConjunta": true,
    "title": "PEQUEÑAS Y MEDIANAS EMPRESAS, FINANZAS, LEGISLACION GENERAL. ",
    "start": "2018-03-07 11:00"
  },
  {
    "id": 1118,
    "resumen": "Reunión Constitutiva.",
    "sala": {
      "numero": "Anexo A - Sala 3",
      "puertas": "244 - 246",
      "internos": "2262",
      "piso": "Piso 2"
    },
    "estado": {
      "id": 2,
      "descripcion": "convocada"
    },
    "observaciones": "",
    "comisiones": [
      {
        "id": 65,
        "nombre": "TRANSPORTES",
        "grupo": "CD",
        "orden": 23
      }
    ],
    "gpas": [],
    "reunionConjunta": false,
    "title": "TRANSPORTES. ",
    "start": "2018-03-07 15:30"
  },
  {
    "id": 1119,
    "resumen": "Agenda de trabajo 2018.",
    "sala": {
      "numero": "Anexo A - Sala 5",
      "puertas": "348 - 350",
      "internos": "2345",
      "piso": "Piso 3"
    },
    "estado": {
      "id": 2,
      "descripcion": "convocada"
    },
    "observaciones": "",
    "comisiones": [
      {
        "id": 52,
        "nombre": "PREVISION Y SEGURIDAD SOCIAL",
        "grupo": "CD",
        "orden": 9
      }
    ],
    "gpas": [],
    "reunionConjunta": false,
    "title": "PREVISION Y SEGURIDAD SOCIAL. ",
    "start": "2018-03-07 17:00"
  },
  {
    "id": 1122,
    "resumen": "Régimen de simplificación y desburocratización de la Administración Pública Nacional.",
    "sala": {
      "numero": "Anexo A - Sala 1",
      "puertas": "227 - 229 - 248 - 250",
      "internos": "2244/42/51",
      "piso": "Piso 2"
    },
    "estado": {
      "id": 2,
      "descripcion": "convocada"
    },
    "observaciones": "",
    "comisiones": [
      {
        "id": 46,
        "nombre": "LEGISLACION GENERAL",
        "grupo": "CD",
        "orden": 2
      },
      {
        "id": 52,
        "nombre": "PREVISION Y SEGURIDAD SOCIAL",
        "grupo": "CD",
        "orden": 9
      }
    ],
    "gpas": [],
    "reunionConjunta": true,
    "title": "LEGISLACION GENERAL, PREVISION Y SEGURIDAD SOCIAL. ",
    "start": "2018-03-07 17:30"
  },
  {
    "id": 1123,
    "resumen": "Reunión constitutiva.",
    "sala": {
      "numero": "Salón de Honor de la Presidencia de la HCDN - Palacio Legislativo, piso 1º",
      "puertas": "",
      "internos": "",
      "piso": ""
    },
    "estado": {
      "id": 2,
      "descripcion": "convocada"
    },
    "observaciones": "",
    "comisiones": [],
    "gpas": [
      {
        "id": 44,
        "descripcion": "GRUPO PARLAMENTARIO DE AMISTAD CON LOS ESTADOS UNIDOS MEXICANOS",
        "nombreCorto": "MEXICO",
        "fechaInicio": "2016-07-27 00:00",
        "fechaFin": null,
        "periodoInicio": 134,
        "periodoFin": 134
      }
    ],
    "reunionConjunta": false,
    "title": "GRUPO PARLAMENTARIO DE AMISTAD CON LOS ESTADOS UNIDOS MEXICANOS. ",
    "start": "2018-03-08 09:30"
  },
  {
    "id": 1124,
    "resumen": "Fue invitada una delegación de la República de Belarús, encabezada por el Presidente de la Junta de Directores del Banco Nacional de Belarús, Sr. Pavel Kallaur, como así también el Sr. Viceministro de Relaciones Exteriores de la República, Evgeny Shestakov, miembro de la delegación.",
    "sala": {
      "numero": "Salón de conferencias \"Delia Parodi\"",
      "puertas": "",
      "internos": "",
      "piso": ""
    },
    "estado": {
      "id": 2,
      "descripcion": "convocada"
    },
    "observaciones": "",
    "comisiones": [],
    "gpas": [
      {
        "id": 21,
        "descripcion": "GRUPO PARLAMENTARIO DE AMISTAD CON LA FEDERACION RUSA",
        "nombreCorto": "RUSIA",
        "fechaInicio": "2014-03-01 00:00",
        "fechaFin": null,
        "periodoInicio": 132,
        "periodoFin": 132
      }
    ],
    "reunionConjunta": false,
    "title": "GRUPO PARLAMENTARIO DE AMISTAD CON LA FEDERACION RUSA. ",
    "start": "2018-03-08 11:00"
  },
  {
    "id": 1126,
    "resumen": "Reunión Constitutiva.",
    "sala": {
      "numero": "Anexo A - Sala 2",
      "puertas": "223 - 225",
      "internos": "2200",
      "piso": "Piso 2"
    },
    "estado": {
      "id": 2,
      "descripcion": "convocada"
    },
    "observaciones": "",
    "comisiones": [
      {
        "id": 59,
        "nombre": "AGRICULTURA Y GANADERIA",
        "grupo": "CD",
        "orden": 17
      }
    ],
    "gpas": [],
    "reunionConjunta": false,
    "title": "AGRICULTURA Y GANADERIA. ",
    "start": "2018-03-13 10:00"
  },
  {
    "id": 1127,
    "resumen": "Reunión Constitutiva.",
    "sala": {
      "numero": "Anexo A - Sala 6",
      "puertas": "323 - 325",
      "internos": "2347",
      "piso": "Piso 3"
    },
    "estado": {
      "id": 2,
      "descripcion": "convocada"
    },
    "observaciones": "",
    "comisiones": [
      {
        "id": 36,
        "nombre": "CULTURA",
        "grupo": "CD",
        "orden": 7
      }
    ],
    "gpas": [],
    "reunionConjunta": false,
    "title": "CULTURA. ",
    "start": "2018-03-13 10:30"
  },
  {
    "id": 1137,
    "resumen": "Reunión constitutiva.",
    "sala": {
      "numero": "Anexo A - Sala 3",
      "puertas": "244 - 246",
      "internos": "2262",
      "piso": "Piso 2"
    },
    "estado": {
      "id": 2,
      "descripcion": "convocada"
    },
    "observaciones": "",
    "comisiones": [
      {
        "id": 49,
        "nombre": "EDUCACION",
        "grupo": "CD",
        "orden": 5
      }
    ],
    "gpas": [],
    "reunionConjunta": false,
    "title": "EDUCACION. ",
    "start": "2018-03-13 11:00"
  },
  {
    "id": 1128,
    "resumen": "Reunión Constitutiva.",
    "sala": {
      "numero": "Anexo A - Sala 5",
      "puertas": "348 - 350",
      "internos": "2345",
      "piso": "Piso 3"
    },
    "estado": {
      "id": 2,
      "descripcion": "convocada"
    },
    "observaciones": "",
    "comisiones": [
      {
        "id": 57,
        "nombre": "DEFENSA NACIONAL",
        "grupo": "CD",
        "orden": 15
      }
    ],
    "gpas": [],
    "reunionConjunta": false,
    "title": "DEFENSA NACIONAL. ",
    "start": "2018-03-13 11:30"
  },
  {
    "id": 1129,
    "resumen": "Reunión Constitutiva.",
    "sala": {
      "numero": "Anexo A - Sala 1",
      "puertas": "227 - 229 - 248 - 250",
      "internos": "2244/42/51",
      "piso": "Piso 2"
    },
    "estado": {
      "id": 2,
      "descripcion": "convocada"
    },
    "observaciones": "",
    "comisiones": [
      {
        "id": 61,
        "nombre": "INDUSTRIA",
        "grupo": "CD",
        "orden": 19
      }
    ],
    "gpas": [],
    "reunionConjunta": false,
    "title": "INDUSTRIA. ",
    "start": "2018-03-13 12:00"
  },
  {
    "id": 1138,
    "resumen": "Reunión constitutiva.",
    "sala": {
      "numero": "Anexo A - Sala 2",
      "puertas": "223 - 225",
      "internos": "2200",
      "piso": "Piso 2"
    },
    "estado": {
      "id": 2,
      "descripcion": "convocada"
    },
    "observaciones": "",
    "comisiones": [
      {
        "id": 56,
        "nombre": "LEGISLACION DEL TRABAJO",
        "grupo": "CD",
        "orden": 14
      }
    ],
    "gpas": [],
    "reunionConjunta": false,
    "title": "LEGISLACION DEL TRABAJO. ",
    "start": "2018-03-13 12:30"
  },
  {
    "id": 1139,
    "resumen": "Reunión constitutiva.",
    "sala": {
      "numero": "Anexo A - Sala 6",
      "puertas": "323 - 325",
      "internos": "2347",
      "piso": "Piso 3"
    },
    "estado": {
      "id": 2,
      "descripcion": "convocada"
    },
    "observaciones": "",
    "comisiones": [
      {
        "id": 38,
        "nombre": "ASUNTOS COOPERATIVOS, MUTUALES Y DE ORG.NO GUBERNAMENTALES",
        "grupo": "CD",
        "orden": 39
      }
    ],
    "gpas": [],
    "reunionConjunta": false,
    "title": "ASUNTOS COOPERATIVOS, MUTUALES Y DE ORG.NO GUBERNAMENTALES. ",
    "start": "2018-03-13 14:30"
  },
  {
    "id": 1140,
    "resumen": "Reunión constitutiva.",
    "sala": {
      "numero": "Anexo A - Sala 5",
      "puertas": "348 - 350",
      "internos": "2345",
      "piso": "Piso 3"
    },
    "estado": {
      "id": 2,
      "descripcion": "convocada"
    },
    "observaciones": "",
    "comisiones": [
      {
        "id": 51,
        "nombre": "JUSTICIA",
        "grupo": "CD",
        "orden": 8
      }
    ],
    "gpas": [],
    "reunionConjunta": false,
    "title": "JUSTICIA. ",
    "start": "2018-03-13 15:00"
  },
  {
    "id": 1135,
    "resumen": "Proyecto de ley en revisión por el cual se modifica el artículo 128 del Código Penal - Ley 11.179 - respecto de establecer las penas por el delito de tenencia de pornografía infantil. Prevención y sanción del acoso sexual callejero, incorporación de los artículos 129 bis y 129 ter al Código Penal. Código Penal, modificación del artículo 277, sobre obligación de denunciar delitos. Actualización de los montos de la pena de multa previstas en el Código Penal y en la Ley 23.737, de estupefacientes. Régimen de prevención y erradicación del acoso verbal y sexual en los espacios públicos.",
    "sala": {
      "numero": "Anexo A - Sala 3",
      "puertas": "244 - 246",
      "internos": "2262",
      "piso": "Piso 2"
    },
    "estado": {
      "id": 2,
      "descripcion": "convocada"
    },
    "observaciones": "",
    "comisiones": [
      {
        "id": 55,
        "nombre": "LEGISLACION PENAL",
        "grupo": "CD",
        "orden": 13
      }
    ],
    "gpas": [],
    "reunionConjunta": false,
    "title": "LEGISLACION PENAL. ",
    "start": "2018-03-13 15:30"
  },
  {
    "id": 1130,
    "resumen": "Reunión Constitutiva.",
    "sala": {
      "numero": "Anexo A - Sala 2",
      "puertas": "223 - 225",
      "internos": "2200",
      "piso": "Piso 2"
    },
    "estado": {
      "id": 2,
      "descripcion": "convocada"
    },
    "observaciones": "",
    "comisiones": [
      {
        "id": 31,
        "nombre": "DEPORTES",
        "grupo": "CD",
        "orden": 37
      }
    ],
    "gpas": [],
    "reunionConjunta": false,
    "title": "DEPORTES. ",
    "start": "2018-03-13 15:30"
  },
  {
    "id": 1131,
    "resumen": "Reunión Constitutiva.",
    "sala": {
      "numero": "Anexo A - Sala 1",
      "puertas": "227 - 229 - 248 - 250",
      "internos": "2244/42/51",
      "piso": "Piso 2"
    },
    "estado": {
      "id": 2,
      "descripcion": "convocada"
    },
    "observaciones": "",
    "comisiones": [
      {
        "id": 45,
        "nombre": "ASUNTOS CONSTITUCIONALES",
        "grupo": "CD",
        "orden": 1
      }
    ],
    "gpas": [],
    "reunionConjunta": false,
    "title": "ASUNTOS CONSTITUCIONALES. ",
    "start": "2018-03-13 16:00"
  },
  {
    "id": 1132,
    "resumen": "Reunión Constitutiva.",
    "sala": {
      "numero": "Anexo A - Sala 6",
      "puertas": "323 - 325",
      "internos": "2347",
      "piso": "Piso 3"
    },
    "estado": {
      "id": 2,
      "descripcion": "convocada"
    },
    "observaciones": "",
    "comisiones": [
      {
        "id": 157,
        "nombre": "POBLACION Y DESARROLLO HUMANO",
        "grupo": "CD",
        "orden": 36
      }
    ],
    "gpas": [],
    "reunionConjunta": false,
    "title": "POBLACION Y DESARROLLO HUMANO. ",
    "start": "2018-03-13 16:30"
  },
  {
    "id": 1141,
    "resumen": "Reunión constitutiva.",
    "sala": {
      "numero": "Anexo A - Sala 2",
      "puertas": "223 - 225",
      "internos": "2200",
      "piso": "Piso 2"
    },
    "estado": {
      "id": 2,
      "descripcion": "convocada"
    },
    "observaciones": "",
    "comisiones": [
      {
        "id": 58,
        "nombre": "OBRAS PUBLICAS",
        "grupo": "CD",
        "orden": 16
      }
    ],
    "gpas": [],
    "reunionConjunta": false,
    "title": "OBRAS PUBLICAS. ",
    "start": "2018-03-13 17:00"
  },
  {
    "id": 1133,
    "resumen": "Reunión Constitutiva.",
    "sala": {
      "numero": "Anexo A - Sala 2",
      "puertas": "223 - 225",
      "internos": "2200",
      "piso": "Piso 2"
    },
    "estado": {
      "id": 2,
      "descripcion": "convocada"
    },
    "observaciones": "",
    "comisiones": [
      {
        "id": 133,
        "nombre": "PREVENCION DE ADICCIONES Y CONTROL DEL NARCOTRAFICO",
        "grupo": "CD",
        "orden": 34
      }
    ],
    "gpas": [],
    "reunionConjunta": false,
    "title": "PREVENCION DE ADICCIONES Y CONTROL DEL NARCOTRAFICO. ",
    "start": "2018-03-13 17:30"
  },
  {
    "id": 1134,
    "resumen": "Fue invitado el señor Ministro de Transportes de la Nación, Lic. Guillermo Dietrich. Régimen de simplificación y desburocratización para el desarrollo de la infraestructura.",
    "sala": {
      "numero": "Anexo A - Sala 1",
      "puertas": "227 - 229 - 248 - 250",
      "internos": "2244/42/51",
      "piso": "Piso 2"
    },
    "estado": {
      "id": 2,
      "descripcion": "convocada"
    },
    "observaciones": "",
    "comisiones": [
      {
        "id": 65,
        "nombre": "TRANSPORTES",
        "grupo": "CD",
        "orden": 23
      },
      {
        "id": 46,
        "nombre": "LEGISLACION GENERAL",
        "grupo": "CD",
        "orden": 2
      }
    ],
    "gpas": [],
    "reunionConjunta": true,
    "title": "TRANSPORTES, LEGISLACION GENERAL. ",
    "start": "2018-03-13 18:00"
  },
  {
    "id": 1142,
    "resumen": "Reunión constitutiva.",
    "sala": {
      "numero": "Anexo A - Sala 5",
      "puertas": "348 - 350",
      "internos": "2345",
      "piso": "Piso 3"
    },
    "estado": {
      "id": 2,
      "descripcion": "convocada"
    },
    "observaciones": "",
    "comisiones": [
      {
        "id": 184,
        "nombre": "DE LAS PERSONAS MAYORES",
        "grupo": "CD",
        "orden": 12
      }
    ],
    "gpas": [],
    "reunionConjunta": false,
    "title": "DE LAS PERSONAS MAYORES. ",
    "start": "2018-03-15 09:30"
  },
  {
    "id": 1125,
    "resumen": "Reunión Constitutiva.",
    "sala": {
      "numero": "Anexo A - Sala 1",
      "puertas": "227 - 229 - 248 - 250",
      "internos": "2244/42/51",
      "piso": "Piso 2"
    },
    "estado": {
      "id": 2,
      "descripcion": "convocada"
    },
    "observaciones": "",
    "comisiones": [
      {
        "id": 47,
        "nombre": "RELACIONES EXTERIORES Y CULTO",
        "grupo": "CD",
        "orden": 3
      }
    ],
    "gpas": [],
    "reunionConjunta": false,
    "title": "RELACIONES EXTERIORES Y CULTO. ",
    "start": "2018-03-15 10:00"
  },
  {
    "id": 1143,
    "resumen": "Reunión constitutiva.",
    "sala": {
      "numero": "Anexo A - Sala 3",
      "puertas": "244 - 246",
      "internos": "2262",
      "piso": "Piso 2"
    },
    "estado": {
      "id": 2,
      "descripcion": "convocada"
    },
    "observaciones": "",
    "comisiones": [
      {
        "id": 35,
        "nombre": "INTERESES MARITIMOS, FLUVIALES, PESQUEROS Y PORTUARIOS",
        "grupo": "CD",
        "orden": 26
      }
    ],
    "gpas": [],
    "reunionConjunta": false,
    "title": "INTERESES MARITIMOS, FLUVIALES, PESQUEROS Y PORTUARIOS. ",
    "start": "2018-03-15 10:30"
  },
  {
    "id": 1144,
    "resumen": "Reunión constitutiva.",
    "sala": {
      "numero": "Anexo A - Sala 6",
      "puertas": "323 - 325",
      "internos": "2347",
      "piso": "Piso 3"
    },
    "estado": {
      "id": 2,
      "descripcion": "convocada"
    },
    "observaciones": "",
    "comisiones": [
      {
        "id": 53,
        "nombre": "ACCION SOCIAL Y SALUD PUBLICA",
        "grupo": "CD",
        "orden": 10
      }
    ],
    "gpas": [],
    "reunionConjunta": false,
    "title": "ACCION SOCIAL Y SALUD PUBLICA. ",
    "start": "2018-03-15 11:00"
  },
  {
    "id": 1148,
    "resumen": "Reunión constitutiva.",
    "sala": {
      "numero": "Salón Arturo Illia del HSN - Hipólito Yrigoyen 1849, piso 1° ",
      "puertas": "",
      "internos": "",
      "piso": "Piso 1"
    },
    "estado": {
      "id": 2,
      "descripcion": "convocada"
    },
    "observaciones": "",
    "comisiones": [
      {
        "id": 1,
        "nombre": "PARLAMENTARIA MIXTA REVISORA DE CUENTAS",
        "grupo": "CB",
        "orden": 1002
      }
    ],
    "gpas": [],
    "reunionConjunta": false,
    "title": "PARLAMENTARIA MIXTA REVISORA DE CUENTAS. ",
    "start": "2018-03-15 11:00"
  },
  {
    "id": 1145,
    "resumen": "Reunión constitutiva.",
    "sala": {
      "numero": "Anexo A - Sala 5",
      "puertas": "348 - 350",
      "internos": "2345",
      "piso": "Piso 3"
    },
    "estado": {
      "id": 2,
      "descripcion": "convocada"
    },
    "observaciones": "",
    "comisiones": [
      {
        "id": 167,
        "nombre": "DEFENSA DEL CONSUMIDOR, DEL USUARIO Y DE LA COMPETENCIA",
        "grupo": "CD",
        "orden": 42
      }
    ],
    "gpas": [],
    "reunionConjunta": false,
    "title": "DEFENSA DEL CONSUMIDOR, DEL USUARIO Y DE LA COMPETENCIA. ",
    "start": "2018-03-15 11:30"
  },
  {
    "id": 1146,
    "resumen": "Reunión constitutiva.",
    "sala": {
      "numero": "Anexo A - Sala 1",
      "puertas": "227 - 229 - 248 - 250",
      "internos": "2244/42/51",
      "piso": "Piso 2"
    },
    "estado": {
      "id": 2,
      "descripcion": "convocada"
    },
    "observaciones": "",
    "comisiones": [
      {
        "id": 41,
        "nombre": "LIBERTAD DE EXPRESION",
        "grupo": "CD",
        "orden": 44
      }
    ],
    "gpas": [],
    "reunionConjunta": false,
    "title": "LIBERTAD DE EXPRESION. ",
    "start": "2018-03-15 12:00"
  },
  {
    "id": 1136,
    "resumen": "Reunión constitutiva.",
    "sala": {
      "numero": "Anexo A - Sala 3",
      "puertas": "244 - 246",
      "internos": "2262",
      "piso": "Piso 2"
    },
    "estado": {
      "id": 2,
      "descripcion": "convocada"
    },
    "observaciones": "",
    "comisiones": [
      {
        "id": 215,
        "nombre": "BICAMERAL DE SEGUIMIENTO DE CONTRATOS DE PARTICIPACIÓN PÚBLICO-PRIVADA",
        "grupo": "CB",
        "orden": 1034
      }
    ],
    "gpas": [],
    "reunionConjunta": false,
    "title": "BICAMERAL DE SEGUIMIENTO DE CONTRATOS DE PARTICIPACIÓN PÚBLICO-PRIVADA. ",
    "start": "2018-03-15 12:00"
  },
  {
    "id": 1147,
    "resumen": "Reunión Constitutiva.",
    "sala": {
      "numero": "Salón de Honor de la Presidencia de la HCDN - Palacio Legislativo, piso 1º",
      "puertas": "",
      "internos": "",
      "piso": ""
    },
    "estado": {
      "id": 2,
      "descripcion": "convocada"
    },
    "observaciones": "",
    "comisiones": [],
    "gpas": [
      {
        "id": 38,
        "descripcion": "GRUPO PARLAMENTARIO DE AMISTAD CON LOS ESTADOS UNIDOS DE NORTEAMERICA",
        "nombreCorto": "ESTADOS UNIDOS",
        "fechaInicio": "2014-03-01 00:00",
        "fechaFin": null,
        "periodoInicio": 132,
        "periodoFin": 132
      }
    ],
    "reunionConjunta": false,
    "title": "GRUPO PARLAMENTARIO DE AMISTAD CON LOS ESTADOS UNIDOS DE NORTEAMERICA. ",
    "start": "2018-03-15 14:00"
  },
  {
    "id": 1150,
    "resumen": "Fueron invitados los integrantes de la delegación de la Asociación Internacional de la Mutualidad –AIM-, encabezada por su presidente, el Señor Christian Zahn, y los cinco vicepresidentes que integran el presídium. Los mismos expondrán sobre la actividad de la asociación y los desafíos que enfrenta el sector en el siglo XXI.",
    "sala": {
      "numero": "Anexo A - Sala 5",
      "puertas": "348 - 350",
      "internos": "2345",
      "piso": "Piso 3"
    },
    "estado": {
      "id": 2,
      "descripcion": "convocada"
    },
    "observaciones": "",
    "comisiones": [
      {
        "id": 38,
        "nombre": "ASUNTOS COOPERATIVOS, MUTUALES Y DE ORG.NO GUBERNAMENTALES",
        "grupo": "CD",
        "orden": 39
      }
    ],
    "gpas": [],
    "reunionConjunta": false,
    "title": "ASUNTOS COOPERATIVOS, MUTUALES Y DE ORG.NO GUBERNAMENTALES. ",
    "start": "2018-03-20 10:00"
  },
  {
    "id": 1153,
    "resumen": "Régimen Jurídico para la Prevención y el Control del Dopaje en el Deporte - Ley 26.912 - modificación del artículo 79, sobre la creación de la Comisión Nacional Antidopaje",
    "sala": {
      "numero": "Anexo A - Sala 2",
      "puertas": "223 - 225",
      "internos": "2200",
      "piso": "Piso 2"
    },
    "estado": {
      "id": 2,
      "descripcion": "convocada"
    },
    "observaciones": "",
    "comisiones": [
      {
        "id": 31,
        "nombre": "DEPORTES",
        "grupo": "CD",
        "orden": 37
      }
    ],
    "gpas": [],
    "reunionConjunta": false,
    "title": "DEPORTES. ",
    "start": "2018-03-20 13:00"
  },
  {
    "id": 1151,
    "resumen": "Código Penal: prevención y sanción del acoso sexual en espacios públicos, incorporación de los artículos 129 bis y 129 ter. Régimen de prevención y erradicación del acoso verbal y sexual en los espacios públicos. Actualización de los montos de las multas previstas en el Código Penal y en la ley 23.737, de estupefacientes.",
    "sala": {
      "numero": "Anexo A - Sala 3",
      "puertas": "244 - 246",
      "internos": "2262",
      "piso": "Piso 2"
    },
    "estado": {
      "id": 2,
      "descripcion": "convocada"
    },
    "observaciones": "",
    "comisiones": [
      {
        "id": 55,
        "nombre": "LEGISLACION PENAL",
        "grupo": "CD",
        "orden": 13
      }
    ],
    "gpas": [],
    "reunionConjunta": false,
    "title": "LEGISLACION PENAL. ",
    "start": "2018-03-20 13:00"
  },
  {
    "id": 1154,
    "resumen": "Régimen de simplificación y desburocratización para el Desarrollo Productivo de La Nación.",
    "sala": {
      "numero": "Anexo C - Sala 2do piso",
      "puertas": "",
      "internos": "",
      "piso": "Piso 2"
    },
    "estado": {
      "id": 2,
      "descripcion": "convocada"
    },
    "observaciones": "",
    "comisiones": [
      {
        "id": 43,
        "nombre": "PEQUEÑAS Y MEDIANAS EMPRESAS",
        "grupo": "CD",
        "orden": 41
      },
      {
        "id": 60,
        "nombre": "FINANZAS",
        "grupo": "CD",
        "orden": 18
      },
      {
        "id": 46,
        "nombre": "LEGISLACION GENERAL",
        "grupo": "CD",
        "orden": 2
      }
    ],
    "gpas": [],
    "reunionConjunta": true,
    "title": "PEQUEÑAS Y MEDIANAS EMPRESAS, FINANZAS, LEGISLACION GENERAL. ",
    "start": "2018-03-20 15:00"
  },
  {
    "id": 1173,
    "resumen": "Reunión Constitutiva",
    "sala": {
      "numero": "Salón de las Provincias del HSN",
      "puertas": "",
      "internos": "",
      "piso": ""
    },
    "estado": {
      "id": 2,
      "descripcion": "convocada"
    },
    "observaciones": "",
    "comisiones": [
      {
        "id": 216,
        "nombre": "BICAMERAL ESPECIAL INVESTIGADORA SOBRE LA DESAPARICIÓN, BÚSQUEDA Y OPERACIONES DE RESCATE DEL SUBMARINO ARA SAN JUAN - LEY 27.433",
        "grupo": "CB",
        "orden": 1035
      }
    ],
    "gpas": [],
    "reunionConjunta": false,
    "title": "BICAMERAL ESPECIAL INVESTIGADORA SOBRE LA DESAPARICIÓN, BÚSQUEDA Y OPERACIONES DE RESCATE DEL SUBMARINO ARA SAN JUAN - LEY 27.433. ",
    "start": "2018-03-20 15:30"
  },
  {
    "id": 1155,
    "resumen": "Régimen de simplificación y desburocratización para el Desarrollo de la Infraestructura.",
    "sala": {
      "numero": "Anexo A - Sala 1",
      "puertas": "227 - 229 - 248 - 250",
      "internos": "2244/42/51",
      "piso": "Piso 2"
    },
    "estado": {
      "id": 2,
      "descripcion": "convocada"
    },
    "observaciones": "",
    "comisiones": [
      {
        "id": 65,
        "nombre": "TRANSPORTES",
        "grupo": "CD",
        "orden": 23
      },
      {
        "id": 46,
        "nombre": "LEGISLACION GENERAL",
        "grupo": "CD",
        "orden": 2
      }
    ],
    "gpas": [],
    "reunionConjunta": true,
    "title": "TRANSPORTES, LEGISLACION GENERAL. ",
    "start": "2018-03-20 17:00"
  },
  {
    "id": 1149,
    "resumen": "Concurrirán diversos invitados para disertar sobre el tema en cuestión. Mensaje N° 0149/17 y proyecto de ley de fecha 12 de diciembre de 2017 por el cual se modifica la - Ley 24.937 -, del Consejo de la Magistratura. Modificaciones de la - Ley 26.855 - Consejo de la Magistratura.",
    "sala": {
      "numero": "Anexo C - Sala 2do piso",
      "puertas": "",
      "internos": "",
      "piso": "Piso 2"
    },
    "estado": {
      "id": 3,
      "descripcion": "suspendida"
    },
    "observaciones": "",
    "comisiones": [
      {
        "id": 45,
        "nombre": "ASUNTOS CONSTITUCIONALES",
        "grupo": "CD",
        "orden": 1
      },
      {
        "id": 51,
        "nombre": "JUSTICIA",
        "grupo": "CD",
        "orden": 8
      }
    ],
    "gpas": [],
    "reunionConjunta": true,
    "title": "ASUNTOS CONSTITUCIONALES, JUSTICIA. ",
    "start": "2018-03-20 17:00"
  },
  {
    "id": 1156,
    "resumen": "Interrupción voluntaria del embarazo, modificaciones al Código Penal.",
    "sala": {
      "numero": "Anexo C - Sala 2do piso",
      "puertas": "",
      "internos": "",
      "piso": "Piso 2"
    },
    "estado": {
      "id": 2,
      "descripcion": "convocada"
    },
    "observaciones": "",
    "comisiones": [
      {
        "id": 46,
        "nombre": "LEGISLACION GENERAL",
        "grupo": "CD",
        "orden": 2
      },
      {
        "id": 55,
        "nombre": "LEGISLACION PENAL",
        "grupo": "CD",
        "orden": 13
      },
      {
        "id": 129,
        "nombre": "FAMILIA, MUJER, NIÑEZ Y ADOLESCENCIA",
        "grupo": "CD",
        "orden": 11
      },
      {
        "id": 53,
        "nombre": "ACCION SOCIAL Y SALUD PUBLICA",
        "grupo": "CD",
        "orden": 10
      }
    ],
    "gpas": [],
    "reunionConjunta": true,
    "title": "LEGISLACION GENERAL, LEGISLACION PENAL, FAMILIA, MUJER, NIÑEZ Y ADOLESCENCIA, ACCION SOCIAL Y SALUD PUBLICA. ",
    "start": "2018-03-20 18:30"
  },
  {
    "id": 1157,
    "resumen": "Reunión Constitutiva",
    "sala": {
      "numero": "Anexo A - Sala 2",
      "puertas": "223 - 225",
      "internos": "2200",
      "piso": "Piso 2"
    },
    "estado": {
      "id": 2,
      "descripcion": "convocada"
    },
    "observaciones": "",
    "comisiones": [
      {
        "id": 185,
        "nombre": "CIENCIA, TECNOLOGIA E INNOVACION PRODUCTIVA",
        "grupo": "CD",
        "orden": 6
      }
    ],
    "gpas": [],
    "reunionConjunta": false,
    "title": "CIENCIA, TECNOLOGIA E INNOVACION PRODUCTIVA. ",
    "start": "2018-03-21 09:00"
  },
  {
    "id": 1152,
    "resumen": "DE LEY. SIMPLIFICACION Y DESBUROCRATIZACION DE LA ADMINISTRACION PÚBLICA NACIONAL. REGIMEN. ",
    "sala": {
      "numero": "Anexo A - Sala 1",
      "puertas": "227 - 229 - 248 - 250",
      "internos": "2244/42/51",
      "piso": "Piso 2"
    },
    "estado": {
      "id": 2,
      "descripcion": "convocada"
    },
    "observaciones": "",
    "comisiones": [
      {
        "id": 46,
        "nombre": "LEGISLACION GENERAL",
        "grupo": "CD",
        "orden": 2
      },
      {
        "id": 52,
        "nombre": "PREVISION Y SEGURIDAD SOCIAL",
        "grupo": "CD",
        "orden": 9
      }
    ],
    "gpas": [],
    "reunionConjunta": true,
    "title": "LEGISLACION GENERAL, PREVISION Y SEGURIDAD SOCIAL. ",
    "start": "2018-03-21 09:00"
  },
  {
    "id": 1158,
    "resumen": "Reunión Constitutiva",
    "sala": {
      "numero": "Anexo A - Sala 3",
      "puertas": "244 - 246",
      "internos": "2262",
      "piso": "Piso 2"
    },
    "estado": {
      "id": 2,
      "descripcion": "convocada"
    },
    "observaciones": "",
    "comisiones": [
      {
        "id": 29,
        "nombre": "MINERIA ",
        "grupo": "CD",
        "orden": 33
      }
    ],
    "gpas": [],
    "reunionConjunta": false,
    "title": "MINERIA . ",
    "start": "2018-03-21 09:30"
  },
  {
    "id": 1159,
    "resumen": "Reunión Constitutiva",
    "sala": {
      "numero": "Anexo A - Sala 5",
      "puertas": "348 - 350",
      "internos": "2345",
      "piso": "Piso 3"
    },
    "estado": {
      "id": 2,
      "descripcion": "convocada"
    },
    "observaciones": "",
    "comisiones": [
      {
        "id": 22,
        "nombre": "ASUNTOS MUNICIPALES",
        "grupo": "CD",
        "orden": 25
      }
    ],
    "gpas": [],
    "reunionConjunta": false,
    "title": "ASUNTOS MUNICIPALES. ",
    "start": "2018-03-21 10:00"
  },
  {
    "id": 1160,
    "resumen": "Reunión Constitutiva",
    "sala": {
      "numero": "Anexo A - Sala 1",
      "puertas": "227 - 229 - 248 - 250",
      "internos": "2244/42/51",
      "piso": "Piso 2"
    },
    "estado": {
      "id": 2,
      "descripcion": "convocada"
    },
    "observaciones": "",
    "comisiones": [
      {
        "id": 34,
        "nombre": "DERECHOS HUMANOS Y GARANTIAS",
        "grupo": "CD",
        "orden": 38
      }
    ],
    "gpas": [],
    "reunionConjunta": false,
    "title": "DERECHOS HUMANOS Y GARANTIAS. ",
    "start": "2018-03-21 11:00"
  },
  {
    "id": 1161,
    "resumen": "Reunión Constitutiva",
    "sala": {
      "numero": "Anexo A - Sala 2",
      "puertas": "223 - 225",
      "internos": "2200",
      "piso": "Piso 2"
    },
    "estado": {
      "id": 2,
      "descripcion": "convocada"
    },
    "observaciones": "",
    "comisiones": [
      {
        "id": 62,
        "nombre": "COMERCIO",
        "grupo": "CD",
        "orden": 20
      }
    ],
    "gpas": [],
    "reunionConjunta": false,
    "title": "COMERCIO. ",
    "start": "2018-03-21 11:30"
  },
  {
    "id": 1171,
    "resumen": "Proyecto de ley en revisión por el cual se crea el Programa Cedula Escolar Nacional –CEN- en el ámbito del Ministerio de Educación y Deportes de la Nación. (Educación/Presupuesto y Hacienda.)",
    "sala": {
      "numero": "Anexo A - Sala 1",
      "puertas": "227 - 229 - 248 - 250",
      "internos": "2244/42/51",
      "piso": "Piso 2"
    },
    "estado": {
      "id": 2,
      "descripcion": "convocada"
    },
    "observaciones": "",
    "comisiones": [
      {
        "id": 49,
        "nombre": "EDUCACION",
        "grupo": "CD",
        "orden": 5
      },
      {
        "id": 48,
        "nombre": "PRESUPUESTO Y HACIENDA",
        "grupo": "CD",
        "orden": 4
      }
    ],
    "gpas": [],
    "reunionConjunta": true,
    "title": "EDUCACION, PRESUPUESTO Y HACIENDA. ",
    "start": "2018-03-22 09:30"
  },
  {
    "id": 1172,
    "resumen": "Se instituye como Día Nacional del Movimiento Estudiantil el 11 de abril de cada año en conmemoración de la fundación de la Federación Universitaria Argentina – FUA- en el año 1918. \nProyectos de resolución y de declaración.",
    "sala": {
      "numero": "Anexo A - Sala 1",
      "puertas": "227 - 229 - 248 - 250",
      "internos": "2244/42/51",
      "piso": "Piso 2"
    },
    "estado": {
      "id": 2,
      "descripcion": "convocada"
    },
    "observaciones": "",
    "comisiones": [
      {
        "id": 49,
        "nombre": "EDUCACION",
        "grupo": "CD",
        "orden": 5
      }
    ],
    "gpas": [],
    "reunionConjunta": false,
    "title": "EDUCACION. ",
    "start": "2018-03-22 10:00"
  },
  {
    "id": 1162,
    "resumen": "Reunión Constitutiva",
    "sala": {
      "numero": "Anexo A - Sala 6",
      "puertas": "323 - 325",
      "internos": "2347",
      "piso": "Piso 3"
    },
    "estado": {
      "id": 2,
      "descripcion": "convocada"
    },
    "observaciones": "",
    "comisiones": [
      {
        "id": 24,
        "nombre": "PETICIONES, PODERES Y REGLAMENTO",
        "grupo": "CD",
        "orden": 28
      }
    ],
    "gpas": [],
    "reunionConjunta": false,
    "title": "PETICIONES, PODERES Y REGLAMENTO. ",
    "start": "2018-03-22 10:00"
  },
  {
    "id": 1174,
    "resumen": "Reunión constitutiva.",
    "sala": {
      "numero": "Anexo A - Sala 2",
      "puertas": "223 - 225",
      "internos": "2200",
      "piso": "Piso 2"
    },
    "estado": {
      "id": 2,
      "descripcion": "convocada"
    },
    "observaciones": "",
    "comisiones": [
      {
        "id": 27,
        "nombre": "TURISMO",
        "grupo": "CD",
        "orden": 31
      }
    ],
    "gpas": [],
    "reunionConjunta": false,
    "title": "TURISMO. ",
    "start": "2018-03-22 10:15"
  },
  {
    "id": 1163,
    "resumen": "Reunión Constitutiva",
    "sala": {
      "numero": "Anexo A - Sala 3",
      "puertas": "244 - 246",
      "internos": "2262",
      "piso": "Piso 2"
    },
    "estado": {
      "id": 2,
      "descripcion": "convocada"
    },
    "observaciones": "",
    "comisiones": [
      {
        "id": 66,
        "nombre": "ECONOMIAS Y DESARROLLO REGIONAL",
        "grupo": "CD",
        "orden": 24
      }
    ],
    "gpas": [],
    "reunionConjunta": false,
    "title": "ECONOMIAS Y DESARROLLO REGIONAL. ",
    "start": "2018-03-22 10:30"
  },
  {
    "id": 1164,
    "resumen": "Reunión Constitutiva",
    "sala": {
      "numero": "Anexo A - Sala 4",
      "puertas": "327 - 329",
      "internos": "2346",
      "piso": "Piso 3"
    },
    "estado": {
      "id": 2,
      "descripcion": "convocada"
    },
    "observaciones": "",
    "comisiones": [
      {
        "id": 42,
        "nombre": "SEGURIDAD INTERIOR",
        "grupo": "CD",
        "orden": 43
      }
    ],
    "gpas": [],
    "reunionConjunta": false,
    "title": "SEGURIDAD INTERIOR. ",
    "start": "2018-03-22 10:45"
  },
  {
    "id": 1165,
    "resumen": "Reunión Constitutiva",
    "sala": {
      "numero": "Anexo A - Sala 6",
      "puertas": "323 - 325",
      "internos": "2347",
      "piso": "Piso 3"
    },
    "estado": {
      "id": 2,
      "descripcion": "convocada"
    },
    "observaciones": "",
    "comisiones": [
      {
        "id": 28,
        "nombre": "ECONOMIA",
        "grupo": "CD",
        "orden": 32
      }
    ],
    "gpas": [],
    "reunionConjunta": false,
    "title": "ECONOMIA. ",
    "start": "2018-03-22 11:00"
  },
  {
    "id": 1166,
    "resumen": "Reunión Constitutiva",
    "sala": {
      "numero": "Anexo A - Sala 2",
      "puertas": "223 - 225",
      "internos": "2200",
      "piso": "Piso 2"
    },
    "estado": {
      "id": 2,
      "descripcion": "convocada"
    },
    "observaciones": "",
    "comisiones": [
      {
        "id": 25,
        "nombre": "JUICIO POLITICO",
        "grupo": "CD",
        "orden": 29
      }
    ],
    "gpas": [],
    "reunionConjunta": false,
    "title": "JUICIO POLITICO. ",
    "start": "2018-03-22 11:15"
  },
  {
    "id": 1167,
    "resumen": "Reunión Constitutiva",
    "sala": {
      "numero": "Anexo A - Sala 3",
      "puertas": "244 - 246",
      "internos": "2262",
      "piso": "Piso 2"
    },
    "estado": {
      "id": 2,
      "descripcion": "convocada"
    },
    "observaciones": "",
    "comisiones": [
      {
        "id": 26,
        "nombre": "RECURSOS NATURALES Y CONSERVACION DEL AMBIENTE HUMANO",
        "grupo": "CD",
        "orden": 30
      }
    ],
    "gpas": [],
    "reunionConjunta": false,
    "title": "RECURSOS NATURALES Y CONSERVACION DEL AMBIENTE HUMANO. ",
    "start": "2018-03-22 11:30"
  },
  {
    "id": 1168,
    "resumen": "Reunión Constitutiva",
    "sala": {
      "numero": "Anexo A - Sala 4",
      "puertas": "327 - 329",
      "internos": "2346",
      "piso": "Piso 3"
    },
    "estado": {
      "id": 2,
      "descripcion": "convocada"
    },
    "observaciones": "",
    "comisiones": [
      {
        "id": 64,
        "nombre": "COMUNICACIONES E INFORMATICA",
        "grupo": "CD",
        "orden": 22
      }
    ],
    "gpas": [],
    "reunionConjunta": false,
    "title": "COMUNICACIONES E INFORMATICA. ",
    "start": "2018-03-22 11:45"
  },
  {
    "id": 1169,
    "resumen": "Reunión Constitutiva",
    "sala": {
      "numero": "Anexo A - Sala 6",
      "puertas": "323 - 325",
      "internos": "2347",
      "piso": "Piso 3"
    },
    "estado": {
      "id": 2,
      "descripcion": "convocada"
    },
    "observaciones": "",
    "comisiones": [
      {
        "id": 23,
        "nombre": "VIVIENDA Y ORDENAMIENTO URBANO",
        "grupo": "CD",
        "orden": 27
      }
    ],
    "gpas": [],
    "reunionConjunta": false,
    "title": "VIVIENDA Y ORDENAMIENTO URBANO. ",
    "start": "2018-03-22 12:00"
  },
  {
    "id": 1176,
    "resumen": "Reunión Constitutiva",
    "sala": {
      "numero": "Anexo A - Sala 2",
      "puertas": "223 - 225",
      "internos": "2200",
      "piso": "Piso 2"
    },
    "estado": {
      "id": 2,
      "descripcion": "convocada"
    },
    "observaciones": "",
    "comisiones": [
      {
        "id": 39,
        "nombre": "MERCOSUR",
        "grupo": "CD",
        "orden": 40
      }
    ],
    "gpas": [],
    "reunionConjunta": false,
    "title": "MERCOSUR. ",
    "start": "2018-03-22 12:15"
  },
  {
    "id": 1170,
    "resumen": "Reunión Constitutiva",
    "sala": {
      "numero": "Anexo A - Sala 3",
      "puertas": "244 - 246",
      "internos": "2262",
      "piso": "Piso 2"
    },
    "estado": {
      "id": 2,
      "descripcion": "convocada"
    },
    "observaciones": "",
    "comisiones": [
      {
        "id": 44,
        "nombre": "DISCAPACIDAD",
        "grupo": "CD",
        "orden": 45
      }
    ],
    "gpas": [],
    "reunionConjunta": false,
    "title": "DISCAPACIDAD. ",
    "start": "2018-03-22 12:30"
  },
  {
    "id": 1175,
    "resumen": "Reunión constitutiva.",
    "sala": {
      "numero": "Anexo A - Sala 5",
      "puertas": "348 - 350",
      "internos": "2345",
      "piso": "Piso 3"
    },
    "estado": {
      "id": 2,
      "descripcion": "convocada"
    },
    "observaciones": "",
    "comisiones": [
      {
        "id": 33,
        "nombre": "ANALISIS Y SEGUIMIENTO DE NORMAS TRIBUTARIAS Y PREVIS.",
        "grupo": "CD",
        "orden": 35
      }
    ],
    "gpas": [],
    "reunionConjunta": false,
    "title": "ANALISIS Y SEGUIMIENTO DE NORMAS TRIBUTARIAS Y PREVIS.. ",
    "start": "2018-03-22 12:45"
  }
]